{
  "images" : [
    {
      "filename" : "ic_account_message_gray.png",
      "idiom" : "universal",
      "scale" : "1x"
    },
    {
      "filename" : "ic_account_message_gray@2x.png",
      "idiom" : "universal",
      "scale" : "2x"
    },
    {
      "filename" : "ic_account_message_gray@3x.png",
      "idiom" : "universal",
      "scale" : "3x"
    }
  ],
  "info" : {
    "author" : "xcode",
    "version" : 1
  }
}
